<?xml version="1.0" encoding="UTF-8"?>
<svg width="150" height="120" viewBox="0 0 150 120" xmlns="http://www.w3.org/2000/svg"
     xmlns:xlink="http://www.w3.org/1999/xlink" ml-update="aware">
    <svg id="Avion" data-name="Calque 1" width="30" height="30" viewBox="0 0 30 30" x="60"
         xmlns="http://www.w3.org/2000/svg">
        <defs>
            <style>.aacls-1{fill:#fff}.aacls-2{fill:#6b777c}</style>
        </defs>
        <path class="aacls-1" d="M15 3.84A11.16 11.16 0 113.84 15 11.16 11.16 0 0115 3.84z"/>
        <path class="aacls-2"
              d="M15 27a12 12 0 114.67-.94A11.93 11.93 0 0115 27zm0-22.32A10.32 10.32 0 1025.32 15 10.33 10.33 0 0015 4.68z"/>
        <path class="aacls-2"
              d="M14.13 13l-6.4 3.9a.86.86 0 00-.43.81v1a.48.48 0 00.55.13c.4-.1 6.44-2 6.44-2zM15.87 13l6.4 3.9a.86.86 0 01.43.81v1a.48.48 0 01-.55.13c-.4-.1-6.44-2-6.44-2zM14.26 20l-1.37 1.13a1.13 1.13 0 00-.33.62v1l2-.58zM15.65 20L17 21.15a1.13 1.13 0 01.33.62v1l-2-.58z"/>
        <path class="aacls-2" d="M15 7.2s-1 0-1 3.12l.1 9.32s0 3.12.88 3.12c0 0 .84 0 .87-3.12l.15-9.32s0-3.12-1-3.12"/>
    </svg>
    <svg id="Bus" data-name="Calque 1" width="30" height="30" viewBox="0 0 30 30" x="60" y="30"
         xmlns="http://www.w3.org/2000/svg">
        <defs>
            <style>.abcls-1{fill:#fff}.abcls-2{fill:#14489f}</style>
        </defs>
        <path class="abcls-1"
              d="M4.54 24V6A1.42 1.42 0 016 4.54h18A1.42 1.42 0 0125.46 6v18A1.42 1.42 0 0124 25.46H6A1.41 1.41 0 014.54 24z"/>
        <path class="abcls-2"
              d="M6 3a3 3 0 00-3 3v18a3 3 0 003 3h18a3 3 0 003-3V6a3 3 0 00-3-3H6zM4.54 24V6A1.42 1.42 0 016 4.54h18A1.42 1.42 0 0125.46 6v18A1.42 1.42 0 0124 25.46H6A1.41 1.41 0 014.54 24z"/>
        <path class="abcls-2"
              d="M23.82 16.64a2.77 2.77 0 00-1.62-2.53l-.68-.37a1.22 1.22 0 01-.75-1 .89.89 0 011-.84 2.65 2.65 0 011.06.28c.44.22.71-.06.84-.53a.65.65 0 00-.43-.9 3.32 3.32 0 00-1.44-.32A2.52 2.52 0 0019.11 13a2.65 2.65 0 001.62 2.47l.72.4a1.22 1.22 0 01.71 1.06 1 1 0 01-1.12.87 3.47 3.47 0 01-1.25-.31c-.47-.22-.72.06-.87.56a.7.7 0 00.5.94 4 4 0 001.62.35 2.63 2.63 0 002.78-2.7zm-5.46-.31v-5.19a.75.75 0 00-.84-.66.74.74 0 00-.84.66v5c0 1-.31 1.65-1.12 1.65s-1.15-.62-1.15-1.65v-5a.78.78 0 00-.87-.65.75.75 0 00-.87.65v5.15c0 2.06 1 3 2.9 3a2.63 2.63 0 002.79-2.97zm-6.52.37a2 2 0 00-1.53-2.06 2.2 2.2 0 001.37-2 2.22 2.22 0 00-2.46-2.12H6.88a.68.68 0 00-.69.72v7.3a.75.75 0 00.84.65h2.22a2.36 2.36 0 002.58-2.49zM9.93 13a1.18 1.18 0 01-1.4 1.09h-.65V12h.65a1.15 1.15 0 011.4 1zm.25 3.46a1.19 1.19 0 01-1.46 1.25H8v-2.39h.72a1.25 1.25 0 011.46 1.19z"/>
    </svg>
    <svg id="Funicular" data-name="Calque 1" width="30" height="30" viewBox="0 0 30 30" y="60"
         xmlns="http://www.w3.org/2000/svg">
        <defs>
            <style>.accls-1{fill:#fff}.accls-2{fill:#6b777c}</style>
        </defs>
        <rect class="accls-1" x="4.54" y="4.54" width="20.92" height="20.92" rx="1.41" ry="1.41"/>
        <path class="accls-2"
              d="M24 3H6a3 3 0 00-3 3v18a3 3 0 003 3h18a3 3 0 003-3V6a3 3 0 00-3-3zM6 4.54h18A1.42 1.42 0 0125.46 6v7.15l-.13.11-5.93 5.88H4.54V6A1.42 1.42 0 016 4.54zm18 20.92H6A1.42 1.42 0 014.54 24v-3h15.27a1 1 0 00.69-.28l5-5V24a1.42 1.42 0 01-1.5 1.46z"/>
        <path class="accls-2"
              d="M5.88 18l.06.11.06.07.09.08.12.07h11.98l.12-.07.1-.08.07-.11.08-.07v-7.87l-.07-.13-.07-.09-.1-.08-.12-.06H6.25l-.12.06-.13.09-.06.08-.06.12v7.7zm4.17-3.41v-3.76h4.06v3.72h-4.06zm7-3.72h.14l.06.06V14.36h-2.62v-3.53h2.45zm-10.1 3.28v-3.07L7 11h.06v-.06h2.48v3.72H7.12l-.12-.3V14.15z"/>
    </svg>
    <svg id="LocalTrain" data-name="Calque 1" width="60" height="30" viewBox="0 0 60 30"
         xmlns="http://www.w3.org/2000/svg">
        <defs>
            <style>.adcls-1{fill:#fff}.adcls-2{fill:#25303b}</style>
        </defs>
        <path class="adcls-1" d="M4.01 4.01h21.97v21.98H4.01z"/>
        <path class="adcls-2"
              d="M9.76 23.73l.81-.9h8.87l.81.9a.45.45 0 00.68 0 .58.58 0 000-.76l-2.33-2.6.14-.11a3.7 3.7 0 001.13-1.72 12.34 12.34 0 00.78-3.49 15.2 15.2 0 00-1-5.18l-.15-.41A5.33 5.33 0 0018.45 8a2.17 2.17 0 00-1.85-.6h-3.2a2.17 2.17 0 00-1.85.6 5.21 5.21 0 00-1.07 1.46l-.15.41a15.26 15.26 0 00-1 5.18 12.35 12.35 0 00.78 3.49 3.67 3.67 0 001.13 1.72l.14.11L9.07 23a.58.58 0 000 .76.45.45 0 00.68 0m1.77-2l.86-1a4.64 4.64 0 001.08.1h3a4.65 4.65 0 001.09-.1l.86 1h-6.88zm6.28-2.33a.8.8 0 11.8-.8.8.8 0 01-.8.8m-7.26-5.14c-.49 0 .28-4.3.63-4.3h7.54c.38 0 1.28 4.3.68 4.3h-8.83zm.82 4.34a.8.8 0 11.8.8.8.8 0 01-.8-.8"/>
        <path class="adcls-2"
              d="M6 3a3 3 0 00-3 3v18a3 3 0 003 3h18a3 3 0 003-3V6a3 3 0 00-3-3H6zM4.54 24V6A1.42 1.42 0 016 4.54h18A1.42 1.42 0 0125.46 6v18A1.41 1.41 0 0124 25.46H6A1.41 1.41 0 014.54 24z"/>
        <path class="adcls-1" d="M55.35 15.08A10.35 10.35 0 1145 4.63a10.35 10.35 0 0110.35 10.45z"/>
        <path class="adcls-2"
              d="M57 15.06a12 12 0 10-24 0 12 12 0 0024 0zm-1.65 0A10.35 10.35 0 1145 4.62a10.35 10.35 0 0110.35 10.44zm-1.74-1.92a2.26 2.26 0 00-2.37-2.37H49a.66.66 0 00-.66.69v7a.72.72 0 00.81.63.69.69 0 00.81-.63v-2.68h.69l1.35 3a.6.6 0 00.57.33c.48 0 1.17-.45.9-1l-1.29-2.7a2.43 2.43 0 001.43-2.27zm-6.09 5.22a.71.71 0 00-.66-.75h-2.28v-2.07h1.89a.68.68 0 00.66-.69.65.65 0 00-.66-.69h-1.89v-1.89h2.1a.72.72 0 00.66-.75.7.7 0 00-.66-.75h-3.06a.65.65 0 00-.66.69v7a.72.72 0 00.81.63h3.09a.73.73 0 00.66-.73zM42 13.14a2.26 2.26 0 00-2.37-2.37h-2.25a.65.65 0 00-.66.69v7a.72.72 0 00.81.63.69.69 0 00.81-.63v-2.68H39l1.35 3a.59.59 0 00.57.33c.48 0 1.17-.45.9-1l-1.29-2.7A2.43 2.43 0 0042 13.14zm9.93.18a1.32 1.32 0 01-1.5 1.26h-.48v-2.43h.57a1.21 1.21 0 011.41 1.17zm-11.61 0a1.32 1.32 0 01-1.5 1.26h-.48v-2.43h.57a1.21 1.21 0 011.41 1.17z"/>
    </svg>
    <svg width="30" height="30" fill="none" viewBox="0 0 30 30" id="Marche" x="30" y="60"
         xmlns="http://www.w3.org/2000/svg">
        <path fill-rule="evenodd" clip-rule="evenodd"
              d="M17.91 4.995a1.995 1.995 0 11-3.99 0 1.995 1.995 0 013.99 0zM10.5 20.88l-3.15 3.87a1.185 1.185 0 101.77 1.56l3.84-4.5c.227-.22.384-.502.45-.81.09-.27.616-3.435.616-3.435l3 3V25.8a1.185 1.185 0 102.37 0v-5.91a1.5 1.5 0 00-.42-1.35l-2.925-3.105.63-3 .9 1.77c.124.258.345.458.615.555l3.66.75h.15a1.007 1.007 0 00.105-2.01c-.396 0-1.615-.267-2.315-.42-.282-.062-.48-.105-.505-.105-.02-.025-.25-.5-.553-1.129-.6-1.247-1.493-3.096-1.622-3.236a3.45 3.45 0 00-1.5-.99 2.13 2.13 0 00-1.5.135S10.5 9.84 10.246 9.96a1.5 1.5 0 00-.45.54L8.1 13.68a1.02 1.02 0 101.8.87l1.5-2.985.99-.555c-.06.21-.975 4.635-.975 4.635L10.5 20.88z"
              fill="#53606E"/>
    </svg>
    <svg width="30" height="30" fill="none" viewBox="0 0 30 30" id="Metro" x="60" y="60"
         xmlns="http://www.w3.org/2000/svg">
        <g clip-path="url(#afclip0)" fill="#25303B">
            <path d="M22.463 21.713V8.627c0-.75-.413-1.538-1.651-1.538-.937 0-1.313.413-1.724 1.237l-4.05 8.438H15l-4.089-8.438c-.412-.824-.787-1.234-1.725-1.234-1.237 0-1.65.784-1.65 1.535v13.086c0 .713.563 1.126 1.239 1.126.599 0 1.27-.413 1.27-1.126V11.96h.038l3.716 7.578c.262.529.6.825 1.2.825s.937-.3 1.2-.825l3.712-7.578h.038v9.75c0 .713.675 1.125 1.276 1.125.674 0 1.237-.412 1.237-1.126"/>
            <path d="M15 0a15 15 0 10-.003 30.001A15 15 0 0015 0zm0 28.045a13.05 13.05 0 11-.009-26.1 13.05 13.05 0 01.008 26.1z"/>
        </g>
        <defs>
            <clipPath id="afclip0">
                <path fill="#fff" d="M0 0h29.999v30H0z"/>
            </clipPath>
        </defs>
    </svg>
    <svg id="Navette" data-name="Calque 1" width="30" height="30" viewBox="0 0 30 30" x="90"
         xmlns="http://www.w3.org/2000/svg">
        <defs>
            <style>.agcls-1{fill:#fff}.agcls-2{fill:#6b777c}</style>
        </defs>
        <rect class="agcls-1" x="4.54" y="4.54" width="20.92" height="20.92" rx="1.41" ry="1.41"/>
        <path class="agcls-2"
              d="M24 3H6a3 3 0 00-3 3v18a3 3 0 003 3h18a3 3 0 003-3V6a3 3 0 00-3-3zM6 4.54h18A1.42 1.42 0 0125.46 6v7.15l-.13.11-5.93 5.88H4.54V6A1.42 1.42 0 016 4.54zm18 20.92H6A1.42 1.42 0 014.54 24v-3h15.27a1 1 0 00.69-.28l5-5V24a1.42 1.42 0 01-1.5 1.46z"/>
        <path class="agcls-2"
              d="M5.88 18l.06.11.06.07.09.08.12.07h11.98l.12-.07.1-.08.07-.11.08-.07v-7.87l-.07-.13-.07-.09-.1-.08-.12-.06H6.25l-.12.06-.13.09-.06.08-.06.12v7.7zm4.17-3.41v-3.76h4.06v3.72h-4.06zm7-3.72h.14l.06.06V14.36h-2.62v-3.53h2.45zm-10.1 3.28v-3.07L7 11h.06v-.06h2.48v3.72H7.12l-.12-.3V14.15z"/>
    </svg>
    <svg id="Noctilien" data-name="Calque 1" width="30" height="30" viewBox="0 0 30 30" x="90" y="30"
         xmlns="http://www.w3.org/2000/svg">
        <defs>
            <style>.ahcls-1{fill:#6b777c}.ahcls-2{fill:#fff}.ahcls-3{fill:#f48120}</style>
        </defs>
        <path class="ahcls-1" d="M6 3a3 3 0 00-3 3v18a3 3 0 003 3h18a3 3 0 003-3V6a3 3 0 00-3-3H6z"/>
        <circle class="ahcls-2" cx="14.7" cy="15" r="8.87"/>
        <path class="ahcls-1"
              d="M19.64 10.16v-.52h-2.22v7.22c-1-1.29-2.14-2.67-3.28-4.11l-2.36-3-.25-.32-1.84.87V20.97H12v-.52-3.47-3.63l1.43 1.8c1.34 1.67 2.79 3.57 4.33 5.65l.25.34 1.7-.83V20v-1.38-3.47-2.24c-.08-1.03-.08-1.91-.07-2.75z"/>
        <path class="ahcls-3"
              d="M24.1 9.68l-1-.35.45-.95a.1.1 0 000-.12.1.1 0 00-.12 0l-.95.45-.35-1a.1.1 0 00-.13-.07.11.11 0 00-.1.07l-.35 1-.94-.45a.1.1 0 00-.12 0 .1.1 0 000 .12l.45.95-1 .35a.1.1 0 00-.07.1.11.11 0 00.07.1l1 .35-.45.94a.11.11 0 000 .12.1.1 0 00.12 0l.94-.45.35 1a.1.1 0 00.1.07.1.1 0 00.1-.07l.35-1 .95.45a.1.1 0 00.12 0 .1.1 0 000-.12l-.45-.94 1-.35a.11.11 0 00.07-.1.11.11 0 00-.04-.1z"/>
    </svg>
    <svg id="RER" data-name="Calque 1" width="30" height="30" viewBox="0 0 30 30" x="90" y="60"
         xmlns="http://www.w3.org/2000/svg">
        <defs>
            <style>.aicls-1{fill:#fff}.aicls-2{fill:#14489f}</style>
        </defs>
        <path class="aicls-1" d="M25.35 15.06A10.35 10.35 0 1115 4.62a10.35 10.35 0 0110.35 10.44z"/>
        <path class="aicls-2"
              d="M27 15.06A12.16 12.16 0 0015 3a12 12 0 100 24 11.92 11.92 0 0012-11.94zm-1.65 0A10.35 10.35 0 1115 4.62a10.35 10.35 0 0110.35 10.44zm-1.74-1.92a2.26 2.26 0 00-2.37-2.37H19a.66.66 0 00-.66.69v7a.72.72 0 00.81.63.69.69 0 00.81-.63v-2.68h.69l1.35 3a.6.6 0 00.57.33c.48 0 1.17-.45.9-1l-1.29-2.7a2.43 2.43 0 001.43-2.27zm-6.09 5.22a.71.71 0 00-.66-.75h-2.28v-2.07h1.89a.68.68 0 00.66-.69.65.65 0 00-.66-.69h-1.89v-1.89h2.1a.72.72 0 00.66-.75.7.7 0 00-.66-.75h-3.06a.65.65 0 00-.66.69v7a.72.72 0 00.81.63h3.09a.73.73 0 00.66-.73zM12 13.14a2.26 2.26 0 00-2.37-2.37H7.38a.65.65 0 00-.66.69v7a.72.72 0 00.81.63.69.69 0 00.81-.63v-2.68H9l1.35 3a.59.59 0 00.57.33c.48 0 1.17-.45.9-1l-1.29-2.7A2.43 2.43 0 0012 13.14zm9.93.18a1.32 1.32 0 01-1.5 1.26h-.48v-2.43h.57a1.21 1.21 0 011.41 1.17zm-11.61 0a1.32 1.32 0 01-1.5 1.26h-.48v-2.43h.57a1.21 1.21 0 011.41 1.17z"/>
    </svg>
    <svg id="RailShuttle" data-name="Calque 1" width="30" height="30" viewBox="0 0 30 30" y="90"
         xmlns="http://www.w3.org/2000/svg">
        <defs>
            <style>.ajcls-1{fill:#fff}.ajcls-2{fill:#6b777c}</style>
        </defs>
        <rect class="ajcls-1" x="4.54" y="4.54" width="20.92" height="20.92" rx="1.41" ry="1.41"/>
        <path class="ajcls-2"
              d="M24 3H6a3 3 0 00-3 3v18a3 3 0 003 3h18a3 3 0 003-3V6a3 3 0 00-3-3zM6 4.54h18A1.42 1.42 0 0125.46 6v7.15l-.13.11-5.93 5.88H4.54V6A1.42 1.42 0 016 4.54zm18 20.92H6A1.42 1.42 0 014.54 24v-3h15.27a1 1 0 00.69-.28l5-5V24a1.42 1.42 0 01-1.5 1.46z"/>
        <path class="ajcls-2"
              d="M5.88 18l.06.11.06.07.09.08.12.07h11.98l.12-.07.1-.08.07-.11.08-.07v-7.87l-.07-.13-.07-.09-.1-.08-.12-.06H6.25l-.12.06-.13.09-.06.08-.06.12v7.7zm4.17-3.41v-3.76h4.06v3.72h-4.06zm7-3.72h.14l.06.06V14.36h-2.62v-3.53h2.45zm-10.1 3.28v-3.07L7 11h.06v-.06h2.48v3.72H7.12l-.12-.3V14.15z"/>
    </svg>
    <svg id="RapidTransit" data-name="Calque 1" width="30" height="30" viewBox="0 0 30 30" x="30" y="90"
         xmlns="http://www.w3.org/2000/svg">
        <defs>
            <style>.akcls-1{fill:#fff}.akcls-2{fill:#14489f}</style>
        </defs>
        <path class="akcls-1" d="M25.35 15.06A10.35 10.35 0 1115 4.62a10.35 10.35 0 0110.35 10.44z"/>
        <path class="akcls-2"
              d="M27 15.06A12.16 12.16 0 0015 3a12 12 0 100 24 11.92 11.92 0 0012-11.94zm-1.65 0A10.35 10.35 0 1115 4.62a10.35 10.35 0 0110.35 10.44zm-1.74-1.92a2.26 2.26 0 00-2.37-2.37H19a.66.66 0 00-.66.69v7a.72.72 0 00.81.63.69.69 0 00.81-.63v-2.68h.69l1.35 3a.6.6 0 00.57.33c.48 0 1.17-.45.9-1l-1.29-2.7a2.43 2.43 0 001.43-2.27zm-6.09 5.22a.71.71 0 00-.66-.75h-2.28v-2.07h1.89a.68.68 0 00.66-.69.65.65 0 00-.66-.69h-1.89v-1.89h2.1a.72.72 0 00.66-.75.7.7 0 00-.66-.75h-3.06a.65.65 0 00-.66.69v7a.72.72 0 00.81.63h3.09a.73.73 0 00.66-.73zM12 13.14a2.26 2.26 0 00-2.37-2.37H7.38a.65.65 0 00-.66.69v7a.72.72 0 00.81.63.69.69 0 00.81-.63v-2.68H9l1.35 3a.59.59 0 00.57.33c.48 0 1.17-.45.9-1l-1.29-2.7A2.43 2.43 0 0012 13.14zm9.93.18a1.32 1.32 0 01-1.5 1.26h-.48v-2.43h.57a1.21 1.21 0 011.41 1.17zm-11.61 0a1.32 1.32 0 01-1.5 1.26h-.48v-2.43h.57a1.21 1.21 0 011.41 1.17z"/>
    </svg>
    <svg id="TZen" data-name="Calque 1" width="30" height="30" viewBox="0 0 30 30" x="60" y="90"
         xmlns="http://www.w3.org/2000/svg">
        <defs>
            <style>.alcls-1{fill:#fff}.alcls-2{fill:#6b777c}</style>
        </defs>
        <path class="alcls-1"
              d="M4.54 24V6A1.42 1.42 0 016 4.54h18A1.42 1.42 0 0125.46 6v18A1.42 1.42 0 0124 25.46H6A1.41 1.41 0 014.54 24z"/>
        <path class="alcls-2"
              d="M21.54 13.19a1.21 1.21 0 00-1.14 1 2.69 2.69 0 00.09-.65.5.5 0 00-.58-.36.55.55 0 00-.63.38v4.8a.52.52 0 00.63.39.54.54 0 00.63-.39v-3c0-.72.14-1.15.65-1.15s.54.34.54 1v3.16a.55.55 0 00.66.39.5.5 0 00.6-.39V15c-.05-1.24-.6-1.81-1.45-1.81zM11 11.74a.59.59 0 00-.48-.69H6.39a.61.61 0 00-.52.69.62.62 0 00.52.62h1.34v5.81a.64.64 0 00.68.58.62.62 0 00.69-.58v-5.8h1.39a.59.59 0 00.51-.63z"/>
        <path class="alcls-2"
              d="M13.87 13.8a.45.45 0 00-.47-.5h-2.69a.51.51 0 00-.45.63.49.49 0 00.45.59h1.79a.67.67 0 00-.21.23l-1.79 2.84a1.2 1.2 0 00-.2.59.5.5 0 00.51.57h2.66a.51.51 0 00.45-.61.5.5 0 00-.45-.61h-1.75a.91.91 0 00.17-.21l1.73-2.8a1.66 1.66 0 00.25-.72zM17.43 17.24a1.68 1.68 0 01-.94.39c-.53 0-.67-.35-.71-1.2l2-.31a.55.55 0 00.54-.65c0-1.2-.43-2.27-1.88-2.27-1.23 0-1.92 1-1.92 2.79s.58 2.78 2 2.78a2.23 2.23 0 001.48-.52.59.59 0 00.11-.78.46.46 0 00-.66-.23zm-.95-3a.76.76 0 01.66.81c0 .2 0 .31-.22.33l-1.17.13c.02-.46.11-1.29.73-1.29z"/>
        <path class="alcls-2"
              d="M6 3a3 3 0 00-3 3v18a3 3 0 003 3h18a3 3 0 003-3V6a3 3 0 00-3-3H6zM4.54 24V6A1.42 1.42 0 016 4.54h18A1.42 1.42 0 0125.46 6v18A1.42 1.42 0 0124 25.46H6A1.41 1.41 0 014.54 24z"/>
    </svg>
    <svg id="Train" data-name="Calque 1" width="60" height="30" viewBox="0 0 60 30" y="30"
         xmlns="http://www.w3.org/2000/svg">
        <defs>
            <style>.amcls-1{fill:#fff}.amcls-2{fill:#25303b}</style>
        </defs>
        <path class="amcls-1" d="M4.01 4.01h21.97v21.98H4.01z"/>
        <path class="amcls-2"
              d="M9.76 23.73l.81-.9h8.87l.81.9a.45.45 0 00.68 0 .58.58 0 000-.76l-2.33-2.6.14-.11a3.7 3.7 0 001.13-1.72 12.34 12.34 0 00.78-3.49 15.2 15.2 0 00-1-5.18l-.15-.41A5.33 5.33 0 0018.45 8a2.17 2.17 0 00-1.85-.6h-3.2a2.17 2.17 0 00-1.85.6 5.21 5.21 0 00-1.07 1.46l-.15.41a15.26 15.26 0 00-1 5.18 12.35 12.35 0 00.78 3.49 3.67 3.67 0 001.13 1.72l.14.11L9.07 23a.58.58 0 000 .76.45.45 0 00.68 0m1.77-2l.86-1a4.64 4.64 0 001.08.1h3a4.65 4.65 0 001.09-.1l.86 1h-6.88zm6.28-2.33a.8.8 0 11.8-.8.8.8 0 01-.8.8m-7.26-5.14c-.49 0 .28-4.3.63-4.3h7.54c.38 0 1.28 4.3.68 4.3h-8.83zm.82 4.34a.8.8 0 11.8.8.8.8 0 01-.8-.8"/>
        <path class="amcls-2"
              d="M6 3a3 3 0 00-3 3v18a3 3 0 003 3h18a3 3 0 003-3V6a3 3 0 00-3-3H6zM4.54 24V6A1.42 1.42 0 016 4.54h18A1.42 1.42 0 0125.46 6v18A1.41 1.41 0 0124 25.46H6A1.41 1.41 0 014.54 24z"/>
        <path class="amcls-1" d="M55.35 15.08A10.35 10.35 0 1145 4.63a10.35 10.35 0 0110.35 10.45z"/>
        <path class="amcls-2"
              d="M57 15.06a12 12 0 10-24 0 12 12 0 0024 0zm-1.65 0A10.35 10.35 0 1145 4.62a10.35 10.35 0 0110.35 10.44zm-1.74-1.92a2.26 2.26 0 00-2.37-2.37H49a.66.66 0 00-.66.69v7a.72.72 0 00.81.63.69.69 0 00.81-.63v-2.68h.69l1.35 3a.6.6 0 00.57.33c.48 0 1.17-.45.9-1l-1.29-2.7a2.43 2.43 0 001.43-2.27zm-6.09 5.22a.71.71 0 00-.66-.75h-2.28v-2.07h1.89a.68.68 0 00.66-.69.65.65 0 00-.66-.69h-1.89v-1.89h2.1a.72.72 0 00.66-.75.7.7 0 00-.66-.75h-3.06a.65.65 0 00-.66.69v7a.72.72 0 00.81.63h3.09a.73.73 0 00.66-.73zM42 13.14a2.26 2.26 0 00-2.37-2.37h-2.25a.65.65 0 00-.66.69v7a.72.72 0 00.81.63.69.69 0 00.81-.63v-2.68H39l1.35 3a.59.59 0 00.57.33c.48 0 1.17-.45.9-1l-1.29-2.7A2.43 2.43 0 0042 13.14zm9.93.18a1.32 1.32 0 01-1.5 1.26h-.48v-2.43h.57a1.21 1.21 0 011.41 1.17zm-11.61 0a1.32 1.32 0 01-1.5 1.26h-.48v-2.43h.57a1.21 1.21 0 011.41 1.17z"/>
    </svg>
    <svg width="30" height="30" fill="none" viewBox="0 0 30 30" id="Tramway" x="90" y="90"
         xmlns="http://www.w3.org/2000/svg">
        <g clip-path="url(#anclip0)" fill="#25303B">
            <path d="M29.025 0H.975a.975.975 0 000 1.95h28.05A.975.975 0 0030 .977V.975A.975.975 0 0029.025 0zM29.025 28.05H.975a.975.975 0 100 1.95h28.05a.975.975 0 00.975-.973v-.002a.975.975 0 00-.975-.974zM26.58 24.96H3v-1.259h23.58a.423.423 0 01.424.424v.423a.423.423 0 01-.424.423M3 22.499h19.654a4.397 4.397 0 003.973-2.478 3.749 3.749 0 00.335-2.176 11.842 11.842 0 00-3.006-6.391 2.93 2.93 0 00-2.163-.953H11.422l2.175-1.792a.528.528 0 000-.811L9.771 4.761a.34.34 0 00-.479.047l-.211.262a.34.34 0 00.046.48l3.36 2.753-2.675 2.195H3v1.354h4.365a.212.212 0 01.212.212v5.8a.212.212 0 01-.212.211H3V22.5zm19.948-10.147a10.51 10.51 0 012.428 4.434c.187.71-.25 1.288-.984 1.288h-6.257a.212.212 0 01-.212-.212v-5.798a.212.212 0 01.212-.212h3.658a1.566 1.566 0 011.155.503v-.004zm-6.583 8.8h-2.73a.212.212 0 01-.211-.212v-8.876a.212.212 0 01.212-.212h2.73a.212.212 0 01.21.212v8.88a.211.211 0 01-.21.212v-.004zm-7.23-9.3h2.73a.212.212 0 01.212.212v8.88a.211.211 0 01-.212.212h-2.73a.212.212 0 01-.212-.212v-8.88a.212.212 0 01.211-.212z"/>
        </g>
        <defs>
            <clipPath id="anclip0">
                <path fill="#fff" d="M0 0h30v30H0z"/>
            </clipPath>
        </defs>
    </svg>
    <svg id="TrolleyBus" data-name="Calque 1" width="30" height="30" viewBox="0 0 30 30" x="120"
         xmlns="http://www.w3.org/2000/svg">
        <defs>
            <style>.aocls-1{fill:#fff}.aocls-2{fill:#14489f}</style>
        </defs>
        <path class="aocls-1"
              d="M4.54 24V6A1.42 1.42 0 016 4.54h18A1.42 1.42 0 0125.46 6v18A1.42 1.42 0 0124 25.46H6A1.41 1.41 0 014.54 24z"/>
        <path class="aocls-2"
              d="M6 3a3 3 0 00-3 3v18a3 3 0 003 3h18a3 3 0 003-3V6a3 3 0 00-3-3H6zM4.54 24V6A1.42 1.42 0 016 4.54h18A1.42 1.42 0 0125.46 6v18A1.42 1.42 0 0124 25.46H6A1.41 1.41 0 014.54 24z"/>
        <path class="aocls-2"
              d="M23.82 16.64a2.77 2.77 0 00-1.62-2.53l-.68-.37a1.22 1.22 0 01-.75-1 .89.89 0 011-.84 2.65 2.65 0 011.06.28c.44.22.71-.06.84-.53a.65.65 0 00-.43-.9 3.32 3.32 0 00-1.44-.32A2.52 2.52 0 0019.11 13a2.65 2.65 0 001.62 2.47l.72.4a1.22 1.22 0 01.71 1.06 1 1 0 01-1.12.87 3.47 3.47 0 01-1.25-.31c-.47-.22-.72.06-.87.56a.7.7 0 00.5.94 4 4 0 001.62.35 2.63 2.63 0 002.78-2.7zm-5.46-.31v-5.19a.75.75 0 00-.84-.66.74.74 0 00-.84.66v5c0 1-.31 1.65-1.12 1.65s-1.15-.62-1.15-1.65v-5a.78.78 0 00-.87-.65.75.75 0 00-.87.65v5.15c0 2.06 1 3 2.9 3a2.63 2.63 0 002.79-2.97zm-6.52.37a2 2 0 00-1.53-2.06 2.2 2.2 0 001.37-2 2.22 2.22 0 00-2.46-2.12H6.88a.68.68 0 00-.69.72v7.3a.75.75 0 00.84.65h2.22a2.36 2.36 0 002.58-2.49zM9.93 13a1.18 1.18 0 01-1.4 1.09h-.65V12h.65a1.15 1.15 0 011.4 1zm.25 3.46a1.19 1.19 0 01-1.46 1.25H8v-2.39h.72a1.25 1.25 0 011.46 1.19z"/>
    </svg>
    <svg width="30" height="30" fill="none" viewBox="0 0 30 30" id="Velo" x="120" y="30"
         xmlns="http://www.w3.org/2000/svg">
        <path d="M23.25 30H6.75A6.75 6.75 0 010 23.25V6.75A6.75 6.75 0 016.75 0h16.5A6.749 6.749 0 0130 6.75v16.5A6.75 6.75 0 0123.25 30zm4.796-6.75V6.75a4.801 4.801 0 00-4.8-4.8H6.75a4.8 4.8 0 00-4.8 4.8v16.5a4.8 4.8 0 004.8 4.796h16.5a4.8 4.8 0 004.796-4.796z"
              fill="#65B5E6"/>
        <path d="M21.6 14.698c-.429 0-.854.072-1.26.212l-1.917-3.586a5.04 5.04 0 001.156-1.616.369.369 0 00-.198-.507l-.35-.12a.37.37 0 00-.468.18 3.938 3.938 0 01-1.418 1.667 3.887 3.887 0 01-2.088.635.37.37 0 00-.35.358l-.028.371a.37.37 0 00.386.381 5.05 5.05 0 002.329-.599l.437.816-2.675 4.272-1.64-4.604a.846.846 0 00-.791-.559h-1.8a.423.423 0 00-.423.423v.424a.423.423 0 00.423.423h.693l-1.416 1.872a3.899 3.899 0 102.046 4.088H15a.48.48 0 00.07 0h.039l.035-.008h.017l.042-.013h.022l.028-.012.022-.012.03-.016.026-.015a.139.139 0 00.021-.014l.01-.008.021-.015.02-.016.017-.015.006-.007.018-.018.024-.025.01-.013.018-.025.016-.022v-.007l2.982-4.762.714 1.335a3.897 3.897 0 102.37-.806l.022-.037zm-7.493 3.27h-1.859a3.887 3.887 0 00-1.038-2.07l1.463-1.953 1.434 4.023zm-3.524-1.24c.306.357.52.782.623 1.24H9.659l.924-1.24zM8.4 21.485a2.881 2.881 0 111.18-5.503l-1.684 2.24a.105.105 0 01-.008.01l-.02.03c0 .009-.01.016-.014.024l-.016.03-.013.026-.012.03-.01.028c0 .01 0 .019-.01.03-.008.01 0 .02-.007.03v.246l.007.033.006.026.01.033.009.025.013.031.012.027c0 .009.01.018.014.027l.017.027.015.024.021.027.017.021.022.025.021.021.022.02.026.022a.04.04 0 01.01.009h.008a.6.6 0 00.077.048l.012.006a.526.526 0 00.078.033h.01a.585.585 0 00.085.02h.02a.587.587 0 00.087.007h2.811A2.884 2.884 0 018.4 21.484zm13.2 0a2.878 2.878 0 01-1.88-5.059l1.424 2.66a.424.424 0 00.568.173l.37-.198a.423.423 0 00.173-.569l-1.425-2.662c.25-.07.51-.106.77-.106a2.879 2.879 0 012.711 3.996 2.878 2.878 0 01-2.711 1.765z"
              fill="#25303B"/>
    </svg>
    <svg width="30" height="30" fill="none" viewBox="0 0 30 30" id="Voiture" x="120" y="60"
         xmlns="http://www.w3.org/2000/svg">
        <path d="M23.25 30H6.75A6.75 6.75 0 010 23.25V6.75A6.75 6.75 0 016.75 0h16.5A6.749 6.749 0 0130 6.75v16.5A6.75 6.75 0 0123.25 30zm4.796-6.75V6.75a4.801 4.801 0 00-4.8-4.8H6.75a4.8 4.8 0 00-4.8 4.8v16.5a4.8 4.8 0 004.8 4.796h16.5a4.8 4.8 0 004.796-4.796z"
              fill="#65B5E6"/>
        <path d="M14.306 14.76c-.17-.174-.212-.442-.212-.69 0-.247.041-.514.212-.688.17-.175.441-.212.689-.212.248 0 .515.041.69.212.175.17.211.44.211.688 0 .248-.04.516-.211.69-.17.175-.442.212-.69.212-.249 0-.515-.042-.69-.211zm-2.686.212c.248 0 .515-.041.69-.211.174-.17.211-.443.211-.69 0-.248-.04-.515-.211-.69-.17-.174-.442-.211-.69-.211-.249 0-.515.041-.69.212-.174.17-.21.44-.21.688 0 .248.04.516.21.69.171.175.442.211.69.211v.001zm6.75 0c.249 0 .515-.041.69-.211.175-.17.212-.443.212-.69 0-.248-.042-.515-.212-.69-.17-.174-.441-.211-.69-.211-.249 0-.515.041-.69.212-.174.17-.21.44-.21.688 0 .248.04.516.21.69.171.175.442.211.69.211v.001zm6.38 1.865v.343a.34.34 0 01-.34.339h-1.249c.018.106.036.217.052.326.024.175.037.352.037.529V22.998a1 1 0 01-1 1h-1a1 1 0 01-1-1v-.5H9.745v.5a1 1 0 01-1 1h-1a1 1 0 01-1-1v-4.625c0-.177.014-.354.038-.53.015-.105.033-.218.05-.325H5.59a.34.34 0 01-.34-.34v-.342a.34.34 0 01.34-.339h1.46a11.844 11.844 0 012.743-5.05 2.913 2.913 0 011.956-.942 46.317 46.317 0 016.51 0 2.91 2.91 0 011.95.943 11.836 11.836 0 012.744 5.05h1.464a.34.34 0 01.335.338v.001zm-16.016-.339h.84l.049-.235.015-.079.014-.058c0-.021.012-.043.018-.064a1.035 1.035 0 01.56-.627l.03-.013.02-.008a2.593 2.593 0 01.258-.093 3.55 3.55 0 012.42.093l.023.008.03.014a1.035 1.035 0 01.56.627l.018.063.013.058.016.08.049.234h.52l-.057-.275c-.014-.065-.026-.134-.044-.211a2.1 2.1 0 00-.106-.294 1.667 1.667 0 00-.227-.341 3.41 3.41 0 01.513-.148 3.55 3.55 0 011.966.147l-.02.022c-.129.159-.226.34-.288.536l-.02.075-.014.058-.021.105-.041.2-.027.127h.521l.049-.234.016-.08.013-.058c0-.021.012-.042.018-.064a1.035 1.035 0 01.56-.627l.03-.013.021-.008c.029-.012.057-.024.086-.033a3.416 3.416 0 01.527-.153 3.55 3.55 0 011.98.153c.029.01.057.021.086.033l.02.008.03.014a1.035 1.035 0 01.56.627c.007.02.014.042.018.063l.014.058.016.08.049.234h.846a.211.211 0 00.2-.277 10.523 10.523 0 00-2.255-3.86 1.566 1.566 0 00-1.049-.509 45.502 45.502 0 00-3.16-.106 48.99 48.99 0 00-3.16.106c-.402.028-.778.21-1.05.508a10.504 10.504 0 00-2.252 3.861.212.212 0 00.199.275v.001zm2.51 2.775a.45.45 0 00-.45-.45h-2.1a.45.45 0 00-.45.45v.45a.451.451 0 00.45.451h2.101a.449.449 0 00.45-.45l-.001-.45zm10.506 0a.45.45 0 00-.45-.45h-2.1a.45.45 0 00-.45.45v.45a.45.45 0 00.45.451h2.1a.449.449 0 00.45-.45v-.45z"
              fill="#25303B"/>
    </svg>
</svg>
